<?xml version="1.0" encoding="UTF-8" standalone="no"?>
<!-- Created with Inkscape (http://www.inkscape.org/) -->

<svg
   xmlns:dc="http://purl.org/dc/elements/1.1/"
   xmlns:cc="http://creativecommons.org/ns#"
   xmlns:rdf="http://www.w3.org/1999/02/22-rdf-syntax-ns#"
   xmlns:svg="http://www.w3.org/2000/svg"
   xmlns="http://www.w3.org/2000/svg"
   xmlns:xlink="http://www.w3.org/1999/xlink"
   xmlns:sodipodi="http://sodipodi.sourceforge.net/DTD/sodipodi-0.dtd"
   xmlns:inkscape="http://www.inkscape.org/namespaces/inkscape"
   width="977.99023"
   height="211.50049"
   viewBox="0 0 258.76031 55.959501"
   version="1.1"
   id="svg1660"
   inkscape:version="0.92.3 (2405546, 2018-03-11)"
   sodipodi:docname="chain-of-characters.svg">
  <defs
     id="defs1654">
    <linearGradient
       id="linearGradient5096"
       inkscape:collect="always">
      <stop
         style="stop-color:#fffffe;stop-opacity:1"
         offset="0"
         id="stop5092" />
      <stop
         style="stop-color:#0c84ff;stop-opacity:1"
         offset="1"
         id="stop5094" />
    </linearGradient>
    <linearGradient
       inkscape:collect="always"
       id="linearGradient4938">
      <stop
         id="stop4936"
         offset="0"
         style="stop-color:#fffffe;stop-opacity:1" />
      <stop
         id="stop4934"
         offset="1"
         style="stop-color:#00ff00;stop-opacity:1" />
    </linearGradient>
    <inkscape:path-effect
       effect="bend_path"
       id="path-effect2409"
       is_visible="true"
       bendpath="M 99.169644,115.174 H 177.39954"
       prop_scale="1"
       scale_y_rel="false"
       vertical="false" />
    <radialGradient
       inkscape:collect="always"
       xlink:href="#linearGradient4938"
       id="radialGradient4940"
       cx="72.906921"
       cy="-311.03159"
       fx="72.906921"
       fy="-311.03159"
       r="16.638945"
       gradientUnits="userSpaceOnUse"
       gradientTransform="translate(16.536484,-12.321302)" />
    <radialGradient
       inkscape:collect="always"
       xlink:href="#linearGradient5096"
       id="radialGradient5016"
       gradientUnits="userSpaceOnUse"
       gradientTransform="translate(16.536484,-12.321302)"
       cx="72.906921"
       cy="-311.03159"
       fx="72.906921"
       fy="-311.03159"
       r="16.638945" />
    <filter
       style="color-interpolation-filters:sRGB"
       inkscape:label="Blur"
       id="filter5275">
      <feGaussianBlur
         stdDeviation="0.5 0.5"
         result="blur"
         id="feGaussianBlur5273" />
    </filter>
    <filter
       style="color-interpolation-filters:sRGB"
       inkscape:label="Blur"
       id="filter5279">
      <feGaussianBlur
         stdDeviation="0.5 0.5"
         result="blur"
         id="feGaussianBlur5277" />
    </filter>
  </defs>
  <sodipodi:namedview
     id="base"
     pagecolor="#ffffff"
     bordercolor="#666666"
     borderopacity="1.0"
     inkscape:pageopacity="0.0"
     inkscape:pageshadow="2"
     inkscape:zoom="0.96812417"
     inkscape:cx="323.91135"
     inkscape:cy="-141.08827"
     inkscape:document-units="mm"
     inkscape:current-layer="layer1"
     showgrid="false"
     inkscape:window-width="1920"
     inkscape:window-height="1031"
     inkscape:window-x="0"
     inkscape:window-y="24"
     inkscape:window-maximized="1"
     fit-margin-top="0"
     fit-margin-left="-0.3"
     fit-margin-right="0"
     fit-margin-bottom="0"
     units="px"
     inkscape:snap-nodes="false" />
  <metadata
     id="metadata1657">
    <rdf:RDF>
      <cc:Work
         rdf:about="">
        <dc:format>image/svg+xml</dc:format>
        <dc:type
           rdf:resource="http://purl.org/dc/dcmitype/StillImage" />
        <dc:title></dc:title>
      </cc:Work>
    </rdf:RDF>
  </metadata>
  <g
     inkscape:label="Layer 1"
     inkscape:groupmode="layer"
     id="layer1"
     transform="translate(13.387635,413.52943)">
    <g
       id="g4818"
       transform="translate(0.64848956,-6.8091404)">
      <g
         transform="matrix(2.2678447,0,0,2.3842827,-282.21031,-396.19249)"
         id="g2276">
        <circle
           style="opacity:0.80199998;fill:#000000;fill-opacity:1;stroke:none;stroke-width:0.52916664;stroke-linejoin:round;stroke-miterlimit:4;stroke-dasharray:none;stroke-opacity:1"
           id="path2259"
           cx="135.56122"
           cy="9.5491066"
           r="9.260417" />
        <text
           xml:space="preserve"
           style="font-style:normal;font-weight:normal;font-size:3.38666654px;line-height:0%;font-family:sans-serif;letter-spacing:0px;word-spacing:0px;fill:#000000;fill-opacity:1;stroke:none;stroke-width:0.28222221px;stroke-linecap:butt;stroke-linejoin:miter;stroke-opacity:1"
           x="127.2871"
           y="2.5161502"
           id="text4293"><tspan
             sodipodi:role="line"
             id="tspan4295"
             x="127.2871"
             y="2.5161502"
             style="font-size:2.82222199px;line-height:1.25;fill:#ffffff;fill-opacity:1;stroke-width:0.28222221px">010011001101110</tspan></text>
        <text
           xml:space="preserve"
           style="font-style:normal;font-weight:normal;font-size:3.38666654px;line-height:0%;font-family:sans-serif;letter-spacing:0px;word-spacing:0px;fill:#000000;fill-opacity:1;stroke:none;stroke-width:0.28222221px;stroke-linecap:butt;stroke-linejoin:miter;stroke-opacity:1"
           x="122.68631"
           y="4.9035845"
           id="text4293-2"><tspan
             sodipodi:role="line"
             id="tspan4295-7"
             x="122.68631"
             y="4.9035845"
             style="font-size:2.82222199px;line-height:1.25;fill:#ffffff;fill-opacity:1;stroke-width:0.28222221px">010011001101110</tspan></text>
        <text
           xml:space="preserve"
           style="font-style:normal;font-weight:normal;font-size:3.38666654px;line-height:0%;font-family:sans-serif;letter-spacing:0px;word-spacing:0px;fill:#000000;fill-opacity:1;stroke:none;stroke-width:0.28222221px;stroke-linecap:butt;stroke-linejoin:miter;stroke-opacity:1"
           x="125.64964"
           y="7.7257891"
           id="text4293-0"><tspan
             sodipodi:role="line"
             id="tspan4295-9"
             x="125.64964"
             y="7.7257891"
             style="font-size:2.82222199px;line-height:1.25;fill:#ffffff;fill-opacity:1;stroke-width:0.28222221px">010011001101110</tspan></text>
        <text
           xml:space="preserve"
           style="font-style:normal;font-weight:normal;font-size:3.38666654px;line-height:0%;font-family:sans-serif;letter-spacing:0px;word-spacing:0px;fill:#000000;fill-opacity:1;stroke:none;stroke-width:0.28222221px;stroke-linecap:butt;stroke-linejoin:miter;stroke-opacity:1"
           x="124.94408"
           y="10.548011"
           id="text4293-3"><tspan
             sodipodi:role="line"
             id="tspan4295-6"
             x="124.94408"
             y="10.548011"
             style="font-size:2.82222199px;line-height:1.25;fill:#ffffff;fill-opacity:1;stroke-width:0.28222221px">010011001101110</tspan></text>
        <text
           xml:space="preserve"
           style="font-style:normal;font-weight:normal;font-size:3.38666654px;line-height:0%;font-family:sans-serif;letter-spacing:0px;word-spacing:0px;fill:#000000;fill-opacity:1;stroke:none;stroke-width:0.28222221px;stroke-linecap:butt;stroke-linejoin:miter;stroke-opacity:1"
           x="118.02965"
           y="13.370234"
           id="text4293-06"><tspan
             sodipodi:role="line"
             id="tspan4295-2"
             x="118.02965"
             y="13.370234"
             style="font-size:2.82222199px;line-height:1.25;fill:#ffffff;fill-opacity:1;stroke-width:0.28222221px">010011001101110</tspan></text>
        <text
           xml:space="preserve"
           style="font-style:normal;font-weight:normal;font-size:3.38666654px;line-height:0%;font-family:sans-serif;letter-spacing:0px;word-spacing:0px;fill:#000000;fill-opacity:1;stroke:none;stroke-width:0.28222221px;stroke-linecap:butt;stroke-linejoin:miter;stroke-opacity:1"
           x="122.68631"
           y="16.192472"
           id="text4293-6"><tspan
             sodipodi:role="line"
             id="tspan4295-1"
             x="122.68631"
             y="16.192472"
             style="font-size:2.82222199px;line-height:1.25;fill:#ffffff;fill-opacity:1;stroke-width:0.28222221px">010011001101110</tspan></text>
        <text
           xml:space="preserve"
           style="font-style:normal;font-weight:normal;font-size:3.38666654px;line-height:0%;font-family:sans-serif;letter-spacing:0px;word-spacing:0px;fill:#000000;fill-opacity:1;stroke:none;stroke-width:0.28222221px;stroke-linecap:butt;stroke-linejoin:miter;stroke-opacity:1"
           x="118.17075"
           y="19.014694"
           id="text4293-8"><tspan
             sodipodi:role="line"
             id="tspan4295-79"
             x="118.17075"
             y="19.014694"
             style="font-size:2.82222199px;line-height:1.25;fill:#ffffff;fill-opacity:1;stroke-width:0.28222221px">010011001101110</tspan></text>
      </g>
      <text
         id="text6159"
         y="-399.0051"
         x="-4.9190397"
         style="font-style:normal;font-weight:normal;font-size:10.58333302px;line-height:1.25;font-family:sans-serif;letter-spacing:0px;word-spacing:0px;fill:#000000;fill-opacity:1;stroke:none;stroke-width:0.26458332"
         xml:space="preserve"><tspan
           style="stroke-width:0.26458332"
           y="-399.0051"
           x="-4.9190397"
           id="tspan6157"
           sodipodi:role="line">Bytes/octets</tspan></text>
    </g>
    <g
       id="g4882"
       transform="translate(-11.803079,-171.20794)">
      <g
         id="g4904"
         transform="translate(-13.131914,-0.81061195)">
        <g
           id="g2276-3"
           transform="matrix(2.2678447,0,0,2.3842827,-194.52592,-236.06855)">
          <g
             id="g4776">
            <rect
               y="-230.54904"
               x="103.91127"
               height="17.768818"
               width="17.768818"
               id="rect4739"
               style="opacity:1;fill:#000000;fill-opacity:1;stroke:#000000;stroke-width:0.52916753;stroke-miterlimit:4;stroke-dasharray:none;stroke-dashoffset:0;stroke-opacity:1"
               transform="matrix(0.4409473,0,0,0.41941335,85.32788,97.08083)" />
            <rect
               y="8.3980484"
               x="134.08096"
               height="7.6564684"
               width="7.8351121"
               id="rect4739-0"
               style="opacity:1;fill:#000000;fill-opacity:1;stroke:#000000;stroke-width:0.22756614;stroke-miterlimit:4;stroke-dasharray:none;stroke-dashoffset:0;stroke-opacity:1" />
            <text
               xml:space="preserve"
               style="font-style:normal;font-weight:normal;font-size:3.38666654px;line-height:0%;font-family:sans-serif;letter-spacing:0px;word-spacing:0px;fill:#000000;fill-opacity:1;stroke:none;stroke-width:0.28222221px;stroke-linecap:butt;stroke-linejoin:miter;stroke-opacity:1"
               x="127.2871"
               y="2.5161502"
               id="text4293-7"><tspan
                 sodipodi:role="line"
                 id="tspan4295-5"
                 x="127.2871"
                 y="2.5161502"
                 style="font-size:2.82222199px;line-height:1.25;fill:#ffffff;fill-opacity:1;stroke-width:0.28222221px">010011001101110</tspan></text>
            <text
               xml:space="preserve"
               style="font-style:normal;font-weight:normal;font-size:3.38666654px;line-height:0%;font-family:sans-serif;letter-spacing:0px;word-spacing:0px;fill:#000000;fill-opacity:1;stroke:none;stroke-width:0.28222221px;stroke-linecap:butt;stroke-linejoin:miter;stroke-opacity:1"
               x="122.68631"
               y="4.9035845"
               id="text4293-2-3"><tspan
                 sodipodi:role="line"
                 id="tspan4295-7-5"
                 x="122.68631"
                 y="4.9035845"
                 style="font-size:2.82222199px;line-height:1.25;fill:#ffffff;fill-opacity:1;stroke-width:0.28222221px">010011001101110</tspan></text>
            <text
               xml:space="preserve"
               style="font-style:normal;font-weight:normal;font-size:3.38666654px;line-height:0%;font-family:sans-serif;letter-spacing:0px;word-spacing:0px;fill:#000000;fill-opacity:1;stroke:none;stroke-width:0.28222221px;stroke-linecap:butt;stroke-linejoin:miter;stroke-opacity:1"
               x="125.64964"
               y="7.7257891"
               id="text4293-0-6"><tspan
                 sodipodi:role="line"
                 id="tspan4295-9-2"
                 x="125.64964"
                 y="7.7257891"
                 style="font-size:2.82222199px;line-height:1.25;fill:#ffffff;fill-opacity:1;stroke-width:0.28222221px">010011001101110</tspan></text>
            <text
               xml:space="preserve"
               style="font-style:normal;font-weight:normal;font-size:3.38666654px;line-height:0%;font-family:sans-serif;letter-spacing:0px;word-spacing:0px;fill:#000000;fill-opacity:1;stroke:none;stroke-width:0.28222221px;stroke-linecap:butt;stroke-linejoin:miter;stroke-opacity:1"
               x="124.94408"
               y="10.548011"
               id="text4293-3-9"><tspan
                 sodipodi:role="line"
                 id="tspan4295-6-1"
                 x="124.94408"
                 y="10.548011"
                 style="font-size:2.82222199px;line-height:1.25;fill:#ffffff;fill-opacity:1;stroke-width:0.28222221px">010011001101110</tspan></text>
            <text
               xml:space="preserve"
               style="font-style:normal;font-weight:normal;font-size:3.38666654px;line-height:0%;font-family:sans-serif;letter-spacing:0px;word-spacing:0px;fill:#000000;fill-opacity:1;stroke:none;stroke-width:0.28222221px;stroke-linecap:butt;stroke-linejoin:miter;stroke-opacity:1"
               x="118.02965"
               y="13.370234"
               id="text4293-06-2"><tspan
                 sodipodi:role="line"
                 id="tspan4295-2-7"
                 x="118.02965"
                 y="13.370234"
                 style="font-size:2.82222199px;line-height:1.25;fill:#ffffff;fill-opacity:1;stroke-width:0.28222221px">010011001101110</tspan></text>
            <text
               xml:space="preserve"
               style="font-style:normal;font-weight:normal;font-size:3.38666654px;line-height:0%;font-family:sans-serif;letter-spacing:0px;word-spacing:0px;fill:#000000;fill-opacity:1;stroke:none;stroke-width:0.28222221px;stroke-linecap:butt;stroke-linejoin:miter;stroke-opacity:1"
               x="130.61978"
               y="15.970532"
               id="text4293-6-0"><tspan
                 sodipodi:role="line"
                 id="tspan4295-1-9"
                 x="130.61978"
                 y="15.970532"
                 style="font-size:2.82222199px;line-height:1.25;fill:#ffffff;fill-opacity:1;stroke-width:0.28222221px">11001101110</tspan></text>
          </g>
        </g>
        <text
           id="text6159-6-6"
           y="-186.50531"
           x="87.760109"
           style="font-style:normal;font-weight:normal;font-size:10.58333111px;line-height:1.25;font-family:sans-serif;letter-spacing:0px;word-spacing:0px;fill:#000000;fill-opacity:1;stroke:none;stroke-width:0.26458332"
           xml:space="preserve"><tspan
             style="stroke-width:0.26458332"
             y="-186.50531"
             x="87.760109"
             id="tspan6157-7-2"
             sodipodi:role="line">Code Units</tspan></text>
      </g>
    </g>
    <g
       id="g4842"
       transform="matrix(0.47386655,-0.11348352,0.1111906,0.46429215,67.962192,-196.83478)"
       style="stroke-width:1.09713364;stroke-miterlimit:4;stroke-dasharray:none">
      <g
         transform="translate(-6.3707366,-459.7791)"
         id="g6232"
         style="stroke-width:1.09713364;stroke-miterlimit:4;stroke-dasharray:none">
        <path
           style="opacity:0.80199998;fill:#00fe00;fill-opacity:1;stroke:#040303;stroke-width:1.09713364;stroke-linejoin:round;stroke-miterlimit:4;stroke-dasharray:none;stroke-opacity:1"
           d="m 62.674702,63.418231 c 14.13958,-1.109461 25.36445,0.04406 38.085908,1.737252 l 0.53453,-5.746295 11.49259,9.755337 -13.497104,8.953529 0.801814,-6.681738 C 86.027752,69.464932 77.169523,70.233603 63.610145,72.639029 Z"
           id="rect6154"
           inkscape:connector-curvature="0"
           sodipodi:nodetypes="cccccccc" />
      </g>
      <g
         transform="translate(-4.7225798,-476.46643)"
         id="g6227"
         style="stroke-width:1.09713364;stroke-miterlimit:4;stroke-dasharray:none">
        <path
           style="opacity:0.80199998;fill:#00fe00;fill-opacity:1;stroke:#040303;stroke-width:1.09713364;stroke-linejoin:round;stroke-miterlimit:4;stroke-dasharray:none;stroke-opacity:1"
           d="m 108.59242,104.79569 c -14.119367,1.34234 -25.361723,0.37397 -38.109361,-1.10933 l -0.439753,5.75432 -11.6518,-9.564598 13.347699,-9.174756 -0.69158,6.694046 c 14.09527,1.73931 22.939628,0.82476 36.457515,-1.803816 z"
           id="rect6154-5"
           inkscape:connector-curvature="0"
           sodipodi:nodetypes="cccccccc" />
      </g>
    </g>
    <g
       id="g4987"
       transform="translate(56.756148,-65.791851)">
      <circle
         r="16.374361"
         cy="-317.19223"
         cx="95.928299"
         id="path4906"
         style="opacity:1;fill:url(#radialGradient5016);fill-opacity:1;stroke:#000000;stroke-width:0.52916747;stroke-miterlimit:4;stroke-dasharray:none;stroke-dashoffset:0;stroke-opacity:1" />
      <text
         xml:space="preserve"
         style="font-style:normal;font-weight:normal;font-size:10.58333111px;line-height:1.25;font-family:sans-serif;letter-spacing:0px;word-spacing:0px;fill:#0017ff;fill-opacity:1;stroke:none;stroke-width:0.26458332"
         x="65.562523"
         y="-336.51132"
         id="text6159-6-6-6"><tspan
           sodipodi:role="line"
           id="tspan6157-7-2-1"
           x="65.562523"
           y="-336.51132"
           style="fill:#0017ff;fill-opacity:1;stroke-width:0.26458332">Code Points</tspan></text>
      <text
         xml:space="preserve"
         style="font-style:normal;font-weight:normal;font-size:5.86767054px;line-height:125%;font-family:sans-serif;letter-spacing:0px;word-spacing:0px;fill:#000000;fill-opacity:1;stroke:none;stroke-width:0.26458374px;stroke-linecap:butt;stroke-linejoin:miter;stroke-opacity:1"
         x="83.951393"
         y="-314.90326"
         id="text5020"><tspan
           sodipodi:role="line"
           id="tspan5018"
           x="83.951393"
           y="-314.90326"
           style="stroke-width:0.26458374px">U+0041</tspan></text>
    </g>
    <g
       id="g4842-8"
       transform="matrix(0.46959321,0.13003936,-0.12741194,0.46010513,32.67752,-219.42923)"
       style="stroke-width:1.09713364;stroke-miterlimit:4;stroke-dasharray:none"
       inkscape:transform-center-x="-0.039132322"
       inkscape:transform-center-y="0.7070271">
      <g
         transform="translate(-6.3707366,-459.7791)"
         id="g6232-7"
         style="stroke-width:1.09713364;stroke-miterlimit:4;stroke-dasharray:none">
        <path
           style="opacity:0.80199998;fill:#00fe00;fill-opacity:1;stroke:#040303;stroke-width:1.09713364;stroke-linejoin:round;stroke-miterlimit:4;stroke-dasharray:none;stroke-opacity:1"
           d="m 62.674702,63.418231 c 14.13958,-1.109461 25.36445,0.04406 38.085908,1.737252 l 0.53453,-5.746295 11.49259,9.755337 -13.497104,8.953529 0.801814,-6.681738 C 86.027752,69.464932 77.169523,70.233603 63.610145,72.639029 Z"
           id="rect6154-9"
           inkscape:connector-curvature="0"
           sodipodi:nodetypes="cccccccc" />
      </g>
      <g
         transform="translate(-4.7225798,-476.46643)"
         id="g6227-2"
         style="stroke-width:1.09713364;stroke-miterlimit:4;stroke-dasharray:none">
        <path
           style="opacity:0.80199998;fill:#00fe00;fill-opacity:1;stroke:#040303;stroke-width:1.09713364;stroke-linejoin:round;stroke-miterlimit:4;stroke-dasharray:none;stroke-opacity:1"
           d="m 108.59242,104.79569 c -14.119367,1.34234 -25.361723,0.37397 -38.109361,-1.10933 l -0.439753,5.75432 -11.6518,-9.564598 13.347699,-9.174756 -0.69158,6.694046 c 14.09527,1.73931 22.939628,0.82476 36.457515,-1.803816 z"
           id="rect6154-5-0"
           inkscape:connector-curvature="0"
           sodipodi:nodetypes="cccccccc" />
      </g>
    </g>
    <g
       id="g4842-4"
       transform="matrix(-0.48324737,0.06244988,-0.06118807,-0.47348343,200.3219,-573.3051)"
       style="stroke-width:1.09713364;stroke-miterlimit:4;stroke-dasharray:none">
      <g
         transform="translate(-6.3707366,-459.7791)"
         id="g6232-9"
         style="stroke-width:1.09713364;stroke-miterlimit:4;stroke-dasharray:none">
        <path
           style="opacity:0.80199998;fill:#00fe00;fill-opacity:1;stroke:#040303;stroke-width:1.09713364;stroke-linejoin:round;stroke-miterlimit:4;stroke-dasharray:none;stroke-opacity:1"
           d="m 62.674702,63.418231 c 14.13958,-1.109461 25.36445,0.04406 38.085908,1.737252 l 0.53453,-5.746295 11.49259,9.755337 -13.497104,8.953529 0.801814,-6.681738 C 86.027752,69.464932 77.169523,70.233603 63.610145,72.639029 Z"
           id="rect6154-8"
           inkscape:connector-curvature="0"
           sodipodi:nodetypes="cccccccc" />
      </g>
      <g
         transform="translate(-4.7225798,-476.46643)"
         id="g6227-1"
         style="stroke-width:1.09713364;stroke-miterlimit:4;stroke-dasharray:none">
        <path
           style="opacity:0.80199998;fill:#00fe00;fill-opacity:1;stroke:#040303;stroke-width:1.09713364;stroke-linejoin:round;stroke-miterlimit:4;stroke-dasharray:none;stroke-opacity:1"
           d="m 108.59242,104.79569 c -14.119367,1.34234 -25.361723,0.37397 -38.109361,-1.10933 l -0.439753,5.75432 -11.6518,-9.564598 13.347699,-9.174756 -0.69158,6.694046 c 14.09527,1.73931 22.939628,0.82476 36.457515,-1.803816 z"
           id="rect6154-5-6"
           inkscape:connector-curvature="0"
           sodipodi:nodetypes="cccccccc" />
      </g>
    </g>
    <g
       id="g5102"
       transform="translate(191.42632,-72.818701)">
      <g
         transform="matrix(1.153784,0,0,1.153784,-11.873397,28.061162)"
         id="text5024"
         style="font-style:normal;font-variant:normal;font-weight:normal;font-stretch:normal;font-size:32.20365906px;line-height:125%;font-family:'Tibetan Machine Uni';-inkscape-font-specification:'Tibetan Machine Uni';letter-spacing:0px;word-spacing:0px;fill:none;fill-opacity:1;stroke:#0017ff;stroke-width:0.45863652;stroke-linecap:butt;stroke-linejoin:miter;stroke-miterlimit:4;stroke-dasharray:1.83454608, 0.45863652;stroke-dashoffset:0;stroke-opacity:1"
         aria-label="A">
        <path
           inkscape:connector-curvature="0"
           id="path5026"
           style="font-style:normal;font-variant:normal;font-weight:normal;font-stretch:normal;font-family:'Tibetan Machine Uni';-inkscape-font-specification:'Tibetan Machine Uni';fill:none;stroke:#0017ff;stroke-width:0.45863652;stroke-miterlimit:4;stroke-dasharray:1.83454608, 0.45863652;stroke-dashoffset:0;stroke-opacity:1"
           d="m 37.88525,-289.91605 q 0.28304,0.69188 0.503182,1.13216 0.251591,0.40884 0.534631,0.62898 0.314489,0.22014 0.723325,0.28304 0.408835,0.0629 1.006364,0.0629 h 0.471733 v 1.50954 H 30.903598 v -1.50954 h 1.415199 q 0.912018,0 1.446649,-0.22014 0.56608,-0.22015 0.56608,-0.66043 0,-0.1258 -0.0629,-0.31449 -0.03145,-0.18869 -0.188693,-0.56608 l -1.761138,-4.49719 h -8.711341 l -1.13216,2.95619 q -0.28304,0.81768 -0.28304,1.4152 0,1.88694 2.673155,1.88694 h 0.660427 v 1.50954 h -8.711339 v -1.50954 h 0.125795 q 0.660427,0 1.289405,-0.28304 0.628977,-0.31449 1.006364,-0.75478 0.188693,-0.18869 0.314489,-0.37738 0.125795,-0.1887 0.251591,-0.44029 0.157244,-0.25159 0.314489,-0.62897 0.188693,-0.40884 0.440284,-1.03782 l 7.579182,-19.21527 h 1.383751 z m -13.648816,-5.84949 h 7.390488 l -3.710969,-9.34032 z" />
      </g>
      <text
         id="text6159-6-6-6-3"
         y="-290.69791"
         x="-12.618038"
         style="font-style:normal;font-weight:normal;font-size:10.58333111px;line-height:1.25;font-family:sans-serif;letter-spacing:0px;word-spacing:0px;fill:#0017ff;fill-opacity:1;stroke:none;stroke-width:0.26458332;stroke-opacity:1"
         xml:space="preserve"><tspan
           style="fill:#0017ff;fill-opacity:1;stroke:none;stroke-width:0.26458332;stroke-opacity:1"
           y="-290.69791"
           x="-12.618038"
           id="tspan6157-7-2-1-9"
           sodipodi:role="line">&quot;Characters&quot;</tspan></text>
    </g>
  </g>
</svg>
